{"success":true,"data":{"carts":[{"userId":1,"items":[{"productId":46,"quantity":2,"product":{"id":46,"name":"Small Bamboo Soap","brand":"Kunde - Conroy","price":5008.79,"finalPrice":4457.82,"discountPercent":11,"images":["https://loremflickr.com/1034/769/product?lock=1006563129232185","https://loremflickr.com/2769/1185/product?lock=4264299280505582","https://loremflickr.com/739/2547/product?lock=1533810490018161","https://loremflickr.com/1206/342/product?lock=5549052195514526"],"stock":337,"isAvailable":false},"totalPrice":8915.64},{"productId":75,"quantity":3,"product":{"id":75,"name":"Oriental Gold Chair","brand":"Kohler, Durgan and Roob","price":40107.49,"finalPrice":40107.49,"discountPercent":0,"images":["https://loremflickr.com/249/262/product?lock=7179784652420735","https://loremflickr.com/2258/3032/product?lock=756053546997711","https://loremflickr.com/3514/2026/product?lock=8756536775064942","https://loremflickr.com/676/1003/product?lock=2198830309429051","https://loremflickr.com/1960/3129/product?lock=6660420086381356"],"stock":378,"isAvailable":true},"totalPrice":120322.47}],"user":{"id":1,"name":"Darren Hodkiewicz IV","email":"Gaetano_OConner@gmail.com"},"summary":{"totalItems":5,"cartTotal":129238.11,"estimatedTax":12923.81,"shipping":5.99,"grandTotal":142167.91}},{"userId":2,"items":[{"productId":38,"quantity":1,"product":{"id":38,"name":"Gorgeous Gold Bacon","brand":"Windler - Emard","price":19964.39,"finalPrice":18367.24,"discountPercent":8,"images":["https://loremflickr.com/1205/641/product?lock=5358803235204083","https://loremflickr.com/943/2866/product?lock=5008333159626767","https://loremflickr.com/346/3445/product?lock=8028941006977611","https://loremflickr.com/295/274/product?lock=6119379108175919"],"stock":263,"isAvailable":false},"totalPrice":18367.24},{"productId":25,"quantity":3,"product":{"id":25,"name":"Intelligent Plastic Keyboard","brand":"Vandervort LLC","price":46151.99,"finalPrice":45228.95,"discountPercent":2,"images":["https://loremflickr.com/2317/2536/product?lock=992053382704079","https://loremflickr.com/2432/2527/product?lock=260010013923025","https://loremflickr.com/93/1106/product?lock=4871942123487423","https://loremflickr.com/3167/3567/product?lock=5779416943560523","https://loremflickr.com/578/1039/product?lock=6454702520157838"],"stock":280,"isAvailable":true},"totalPrice":135686.85},{"productId":50,"quantity":1,"product":{"id":50,"name":"Luxurious Marble Hat","brand":"Stokes - Ferry","price":35011.75,"finalPrice":31510.58,"discountPercent":10,"images":["https://loremflickr.com/2742/3855/product?lock=7066527585139139","https://loremflickr.com/1029/1022/product?lock=8392056700790839","https://loremflickr.com/2681/828/product?lock=7974794503845179","https://loremflickr.com/3221/3580/product?lock=2246605436248404"],"stock":399,"isAvailable":false},"totalPrice":31510.58},{"productId":78,"quantity":3,"product":{"id":78,"name":"Incredible Bamboo Shoes","brand":"Tremblay - Armstrong","price":41785.19,"finalPrice":29249.63,"discountPercent":30,"images":["https://loremflickr.com/1222/2713/product?lock=4389614213298866","https://loremflickr.com/1141/1993/product?lock=1266702137051994","https://loremflickr.com/393/3369/product?lock=881440951954941"],"stock":362,"isAvailable":true},"totalPrice":87748.89}],"user":{"id":2,"name":"Laura Hermann-Purdy","email":"Mara75@yahoo.com"},"summary":{"totalItems":8,"cartTotal":273313.56,"estimatedTax":27331.36,"shipping":5.99,"grandTotal":300650.91}},{"userId":3,"items":[{"productId":5,"quantity":2,"product":{"id":5,"name":"Fantastic Concrete Keyboard","brand":"Bailey - Hilpert","price":28596.69,"finalPrice":22019.45,"discountPercent":23,"images":["https://loremflickr.com/1820/2930/product?lock=170818658951188","https://loremflickr.com/358/594/product?lock=790047987897515","https://loremflickr.com/972/2508/product?lock=5864965237293302","https://loremflickr.com/3501/407/product?lock=8499380428500882","https://loremflickr.com/3402/2296/product?lock=8875784003921053"],"stock":285,"isAvailable":false},"totalPrice":44038.9},{"productId":9,"quantity":1,"product":{"id":9,"name":"Licensed Wooden Fish","brand":"O'Kon LLC","price":11679.49,"finalPrice":9927.57,"discountPercent":15,"images":["https://loremflickr.com/2601/29/product?lock=3595015935489043","https://loremflickr.com/3001/732/product?lock=2393081573728830"],"stock":429,"isAvailable":true},"totalPrice":9927.57},{"productId":73,"quantity":2,"product":{"id":73,"name":"Practical Concrete Sausages","brand":"Gutkowski - Torp","price":7546.89,"finalPrice":5735.64,"discountPercent":24,"images":["https://loremflickr.com/2209/835/product?lock=3524600659476619","https://loremflickr.com/254/3249/product?lock=6973882969220505","https://loremflickr.com/1936/3375/product?lock=6450565394466267"],"stock":273,"isAvailable":false},"totalPrice":11471.28},{"productId":98,"quantity":2,"product":{"id":98,"name":"Rustic Concrete Chicken","brand":"Roob LLC","price":13345.79,"finalPrice":10810.09,"discountPercent":19,"images":["https://loremflickr.com/3602/1970/product?lock=7468095768916269","https://loremflickr.com/3388/1130/product?lock=8164809923731333"],"stock":473,"isAvailable":true},"totalPrice":21620.18}],"user":{"id":3,"name":"Derrick Gislason-Erdman","email":"Gwen8@yahoo.com"},"summary":{"totalItems":7,"cartTotal":87057.93,"estimatedTax":8705.79,"shipping":5.99,"grandTotal":95769.71}},{"userId":4,"items":[{"productId":14,"quantity":3,"product":{"id":14,"name":"Elegant Ceramic Ball","brand":"Kessler, Mills and Zboncak","price":15034.85,"finalPrice":12779.62,"discountPercent":15,"images":["https://loremflickr.com/845/1036/product?lock=946126499549946","https://loremflickr.com/2965/2395/product?lock=7505557660813508","https://loremflickr.com/3877/1879/product?lock=5983012711173644","https://loremflickr.com/3224/302/product?lock=5361728764900507","https://loremflickr.com/2753/777/product?lock=5079816566333005"],"stock":163,"isAvailable":true},"totalPrice":38338.86}],"user":{"id":4,"name":"Miss Rose Schiller","email":"Frankie55@gmail.com"},"summary":{"totalItems":3,"cartTotal":38338.86,"estimatedTax":3833.89,"shipping":5.99,"grandTotal":42178.74}},{"userId":5,"items":[{"productId":20,"quantity":2,"product":{"id":20,"name":"Recycled Granite Sausages","brand":"Dickinson - Balistreri","price":10135.59,"finalPrice":7804.4,"discountPercent":23,"images":["https://loremflickr.com/732/1416/product?lock=6809467375738439","https://loremflickr.com/1260/1829/product?lock=8000796870298349","https://loremflickr.com/3251/1015/product?lock=8066881580564152","https://loremflickr.com/1045/3076/product?lock=6042357077194902"],"stock":61,"isAvailable":true},"totalPrice":15608.8},{"productId":94,"quantity":1,"product":{"id":94,"name":"Frozen Aluminum Bacon","brand":"Roberts - Christiansen","price":46302.9,"finalPrice":46302.9,"discountPercent":0,"images":["https://loremflickr.com/3877/3267/product?lock=8208551935354907","https://loremflickr.com/2092/2404/product?lock=5715084341653488","https://loremflickr.com/757/2426/product?lock=5745210441739290","https://loremflickr.com/957/405/product?lock=3030034515833375"],"stock":71,"isAvailable":false},"totalPrice":46302.9},{"productId":4,"quantity":1,"product":{"id":4,"name":"Oriental Steel Mouse","brand":"Murray, Ziemann and Stehr","price":42875.69,"finalPrice":34729.31,"discountPercent":19,"images":["https://loremflickr.com/832/3605/product?lock=1121065908221458","https://loremflickr.com/1716/2067/product?lock=191754082901607"],"stock":251,"isAvailable":false},"totalPrice":34729.31}],"user":{"id":5,"name":"Jo Jaskolski","email":"Milford_Altenwerth@gmail.com"},"summary":{"totalItems":4,"cartTotal":96641.01,"estimatedTax":9664.1,"shipping":5.99,"grandTotal":106311.1}},{"userId":6,"items":[{"productId":90,"quantity":3,"product":{"id":90,"name":"Luxurious Bronze Keyboard","brand":"Towne, Grant and Crooks","price":43971.59,"finalPrice":39134.72,"discountPercent":11,"images":["https://loremflickr.com/1368/356/product?lock=5476359427233496","https://loremflickr.com/1613/1894/product?lock=1790199362991320"],"stock":372,"isAvailable":false},"totalPrice":117404.16}],"user":{"id":6,"name":"Jennifer Lowe","email":"Haven.Conroy44@hotmail.com"},"summary":{"totalItems":3,"cartTotal":117404.16,"estimatedTax":11740.42,"shipping":5.99,"grandTotal":129150.57}},{"userId":7,"items":[{"productId":9,"quantity":2,"product":{"id":9,"name":"Licensed Wooden Fish","brand":"O'Kon LLC","price":11679.49,"finalPrice":9927.57,"discountPercent":15,"images":["https://loremflickr.com/2601/29/product?lock=3595015935489043","https://loremflickr.com/3001/732/product?lock=2393081573728830"],"stock":429,"isAvailable":true},"totalPrice":19855.14}],"user":{"id":7,"name":"Dr. Andre Fadel","email":"Brice_Rogahn-Marks@gmail.com"},"summary":{"totalItems":2,"cartTotal":19855.14,"estimatedTax":1985.51,"shipping":5.99,"grandTotal":21846.64}},{"userId":8,"items":[{"productId":41,"quantity":2,"product":{"id":41,"name":"Tasty Rubber Keyboard","brand":"Yost Group","price":17676.25,"finalPrice":15731.86,"discountPercent":11,"images":["https://loremflickr.com/84/3336/product?lock=2160098770800039","https://loremflickr.com/3395/3415/product?lock=3443327142623272","https://loremflickr.com/233/2245/product?lock=4182433655971561","https://loremflickr.com/725/3740/product?lock=2463085615913814","https://loremflickr.com/727/520/product?lock=1187229976936920"],"stock":41,"isAvailable":true},"totalPrice":31463.72}],"user":{"id":8,"name":"Francis Greenholt","email":"Irwin_Ferry@yahoo.com"},"summary":{"totalItems":2,"cartTotal":31463.72,"estimatedTax":3146.37,"shipping":5.99,"grandTotal":34616.08}},{"userId":9,"items":[{"productId":5,"quantity":3,"product":{"id":5,"name":"Fantastic Concrete Keyboard","brand":"Bailey - Hilpert","price":28596.69,"finalPrice":22019.45,"discountPercent":23,"images":["https://loremflickr.com/1820/2930/product?lock=170818658951188","https://loremflickr.com/358/594/product?lock=790047987897515","https://loremflickr.com/972/2508/product?lock=5864965237293302","https://loremflickr.com/3501/407/product?lock=8499380428500882","https://loremflickr.com/3402/2296/product?lock=8875784003921053"],"stock":285,"isAvailable":false},"totalPrice":66058.35},{"productId":45,"quantity":3,"product":{"id":45,"name":"Gorgeous Silk Shirt","brand":"Rau, Carter and Bode","price":13265.59,"finalPrice":10081.85,"discountPercent":24,"images":["https://loremflickr.com/104/3075/product?lock=3015604488601441","https://loremflickr.com/1442/864/product?lock=2684264693515587","https://loremflickr.com/3057/3653/product?lock=1749091388860284","https://loremflickr.com/1926/1742/product?lock=6989463431588806","https://loremflickr.com/1256/2399/product?lock=5299644513627418"],"stock":436,"isAvailable":false},"totalPrice":30245.55}],"user":{"id":9,"name":"Max Nikolaus","email":"Cecilia57@hotmail.com"},"summary":{"totalItems":6,"cartTotal":96303.9,"estimatedTax":9630.39,"shipping":5.99,"grandTotal":105940.28}},{"userId":10,"items":[{"productId":35,"quantity":3,"product":{"id":35,"name":"Refined Granite Bacon","brand":"Borer, Green and Robel","price":8706.65,"finalPrice":8358.38,"discountPercent":4,"images":["https://loremflickr.com/1696/936/product?lock=7253495087082432","https://loremflickr.com/259/3404/product?lock=3883103209085643","https://loremflickr.com/2622/1198/product?lock=5594845578463236","https://loremflickr.com/3082/2965/product?lock=2628732543428975"],"stock":166,"isAvailable":false},"totalPrice":25075.14},{"productId":10,"quantity":3,"product":{"id":10,"name":"Frozen Silk Pants","brand":"Braun, Christiansen and Schinner","price":26585.39,"finalPrice":24192.7,"discountPercent":9,"images":["https://loremflickr.com/3154/249/product?lock=6108458399200590","https://loremflickr.com/2010/2925/product?lock=2047335074308082","https://loremflickr.com/1579/3966/product?lock=3353699852049747","https://loremflickr.com/2868/3513/product?lock=7572116381364715"],"stock":283,"isAvailable":false},"totalPrice":72578.1},{"productId":87,"quantity":2,"product":{"id":87,"name":"Practical Bronze Car","brand":"Koss - McClure","price":28751.59,"finalPrice":23576.3,"discountPercent":18,"images":["https://loremflickr.com/296/3390/product?lock=6448974267439713","https://loremflickr.com/2566/141/product?lock=6664808378959900","https://loremflickr.com/2904/2182/product?lock=2466330071237975","https://loremflickr.com/2696/1111/product?lock=6410625324705638","https://loremflickr.com/2560/3872/product?lock=3650690593580762"],"stock":56,"isAvailable":true},"totalPrice":47152.6}],"user":{"id":10,"name":"Tricia Kshlerin","email":"Keeley41@hotmail.com"},"summary":{"totalItems":8,"cartTotal":144805.84,"estimatedTax":14480.58,"shipping":5.99,"grandTotal":159292.41}}],"statistics":{"totalCarts":50,"activeCarts":50,"totalItemsInCarts":287,"averageCartValue":126071.82,"totalCartValue":6303590.76}},"pagination":{"page":1,"limit":10,"total":50,"totalPages":5}}